{
  "content": [
    {
      "prisonerNumber": "A7089EY",
      "pncNumber": "12/394773H",
      "pncNumberCanonicalShort": "12/394773H",
      "pncNumberCanonicalLong": "2012/394773H",
      "croNumber": "29906/12J",
      "bookingId": "1900836",
      "bookNumber": "V61585",
      "firstName": "JOHN",
      "middleNames": "LEE",
      "lastName": "SMITH",
      "dateOfBirth": "1980-12-31",
      "gender": "Male",
      "ethnicity": "White: Eng./Welsh/Scot./N.Irish/British",
      "youthOffender": true,
      "maritalStatus": "Married",
      "religion": "Christian",
      "nationality": "British",
      "status": "ACTIVE IN",
      "lastMovementTypeCode": "ADM",
      "lastMovementReasonCode": "24",
      "inOutStatus": "IN",
      "prisonId": "MDI",
      "prisonName": "Moorland Prison",
      "cellLocation": "A-1-001",
      "aliases": [],
      "alerts": [
        {
          "alertType": "P",
          "alertCode": "PL1",
          "active": true,
          "expired": false
        },
        {
          "alertType": "H",
          "alertCode": "HC",
          "active": true,
          "expired": false
        },
        {
          "alertType": "X",
          "alertCode": "XSA",
          "active": true,
          "expired": false
        },
        {
          "alertType": "R",
          "alertCode": "RKS",
          "active": true,
          "expired": false
        },
        {
          "alertType": "R",
          "alertCode": "RSS",
          "active": true,
          "expired": false
        },
        {
          "alertType": "X",
          "alertCode": "XVL",
          "active": true,
          "expired": false
        },
        {
          "alertType": "O",
          "alertCode": "OCYP",
          "active": true,
          "expired": false
        },
        {
          "alertType": "V",
          "alertCode": "VU",
          "active": true,
          "expired": false
        }
      ],
      "csra": "High",
      "category": "C",
      "legalStatus": "SENTENCED",
      "imprisonmentStatus": "LASPO_DR",
      "convictedStatus": "Remand",
      "mostSeriousOffence": "Handle stolen goods",
      "recall": false,
      "indeterminateSentence": true,
      "sentenceStartDate": "2016-09-09",
      "releaseDate": "2023-04-01",
      "confirmedReleaseDate": "2023-04-01",
      "sentenceExpiryDate": "2026-04-05",
      "licenceExpiryDate": "2026-04-15",
      "homeDetentionCurfewEligibilityDate": "2020-12-20",
      "homeDetentionCurfewActualDate": "2019-06-22",
      "homeDetentionCurfewEndDate": "2019-06-22",
      "additionalDaysAwarded": 27,
      "nonDtoReleaseDate": "2023-05-16",
      "nonDtoReleaseDateType": "CRD",
      "paroleEligibilityDate": "2020-12-30",
      "conditionalReleaseDate": "2023-05-16",
      "restrictedPatient": false
    },
    {
      "prisonerNumber": "A7090BD",
      "pncNumber": "12/394773W",
      "pncNumberCanonicalShort": "12/394773W",
      "pncNumberCanonicalLong": "2012/394773W",
      "croNumber": "29906/12L",
      "bookingId": "1902838",
      "bookNumber": "V61687",
      "firstName": "JAMES",
      "lastName": "BALL",
      "dateOfBirth": "1973-02-01",
      "gender": "Male",
      "ethnicity": "White: Eng./Welsh/Scot./N.Irish/British",
      "youthOffender": false,
      "religion": "Christian",
      "nationality": "British",
      "status": "ACTIVE IN",
      "lastMovementTypeCode": "ADM",
      "lastMovementReasonCode": "24",
      "inOutStatus": "IN",
      "prisonId": "LNI",
      "prisonName": "Moorland Prison",
      "cellLocation": "A-1-003",
      "legalStatus": "SENTENCED",
      "mostSeriousOffence": "Section 18 - wounding with intent",
      "recall": true,
      "indeterminateSentence": false,
      "licenceExpiryDate": "2020-02-03",
      "receptionDate": "2015-10-01",
      "paroleEligibilityDate": "2020-02-03",
      "automaticReleaseDate": "2020-02-03",
      "postRecallReleaseDate": "2020-02-03",
      "conditionalReleaseDate": "2020-02-03",
      "actualParoleDate": "2020-02-03",
      "restrictedPatient": false
    },
    {
      "prisonerNumber": "A7090BE",
      "bookingId": "1908838",
      "bookNumber": "V63588",
      "firstName": "BORIS",
      "lastName": "WEST",
      "dateOfBirth": "1985-03-15",
      "gender": "Male",
      "ethnicity": "White: Eng./Welsh/Scot./N.Irish/British",
      "youthOffender": false,
      "status": "ACTIVE IN",
      "lastMovementTypeCode": "ADM",
      "lastMovementReasonCode": "24",
      "inOutStatus": "IN",
      "prisonId": "LNI",
      "prisonName": "Low Newton Prison",
      "cellLocation": "H-1-004",
      "legalStatus": "REMAND",
      "licenceExpiryDate": "2020-02-03",
      "receptionDate": "2015-10-01",
      "paroleEligibilityDate": "2020-02-03",
      "automaticReleaseDate": "2020-02-03",
      "postRecallReleaseDate": "2020-02-03",
      "conditionalReleaseDate": "2020-02-03",
      "actualParoleDate": "2020-02-03",
      "restrictedPatient": false
    },
    {
      "prisonerNumber": "A7090BF",
      "pncNumber": "12/394773W",
      "pncNumberCanonicalShort": "12/394773W",
      "pncNumberCanonicalLong": "2012/394773W",
      "croNumber": "29906/12L",
      "bookingId": "1909838",
      "bookNumber": "V61587",
      "firstName": "FRANK",
      "lastName": "FELLOWS",
      "dateOfBirth": "1999-06-01",
      "gender": "Male",
      "ethnicity": "White: Eng./Welsh/Scot./N.Irish/British",
      "youthOffender": false,
      "status": "INACTIVE OUT",
      "lastMovementTypeCode": "REL",
      "lastMovementReasonCode": "HP",
      "inOutStatus": "OUT",
      "prisonId": "OUT",
      "prisonName": "Outside",
      "legalStatus": "SENTENCED",
      "mostSeriousOffence": "Section 18 - wounding with intent",
      "recall": false,
      "indeterminateSentence": false,
      "licenceExpiryDate": "2020-02-03",
      "receptionDate": "2015-10-01",
      "paroleEligibilityDate": "2020-02-03",
      "automaticReleaseDate": "2020-02-03",
      "postRecallReleaseDate": "2020-02-03",
      "conditionalReleaseDate": "2020-02-03",
      "actualParoleDate": "2020-02-03",
      "tariffDate": "2022-01-04",
      "releaseOnTemporaryLicenceDate": "2019-08-01",
      "locationDescription": "Outside - Psychiatric Hospital Discharge to Hazelwood House - discharged to Hazelwood House",
      "restrictedPatient": true,
      "supportingPrisonId": "MDI",
      "dischargedHospitalId": "HAZLWD",
      "dischargedHospitalDescription": "Hazelwood House",
      "dischargeDate": "2020-02-03",
      "dischargeDetails": "Psychiatric Hospital Discharge to Hazelwood House"
    },
    {
      "prisonerNumber": "A9999AA",
      "pncNumber": "2015/001234S",
      "pncNumberCanonicalShort": "15/1234S",
      "pncNumberCanonicalLong": "2015/1234S",
      "croNumber": "43252/15S",
      "bookingId": "1808231",
      "bookNumber": "V61587",
      "firstName": "PAUL",
      "lastName": "BOOTH",
      "dateOfBirth": "1976-03-01",
      "gender": "Male",
      "ethnicity": "White: Eng./Welsh/Scot./N.Irish/British",
      "youthOffender": false,
      "status": "ACTIVE IN",
      "lastMovementTypeCode": "ADM",
      "lastMovementReasonCode": "24",
      "inOutStatus": "IN",
      "prisonId": "WSI",
      "prisonName": "Wormwood Scrubs",
      "mostSeriousOffence": "Section 18 - wounding with intent",
      "recall": false,
      "indeterminateSentence": false,
      "licenceExpiryDate": "2020-02-03",
      "receptionDate": "2015-10-01",
      "paroleEligibilityDate": "2020-02-03",
      "automaticReleaseDate": "2020-02-03",
      "postRecallReleaseDate": "2020-02-03",
      "conditionalReleaseDate": "2020-02-03",
      "actualParoleDate": "2020-02-03",
      "locationDescription": "Wormwood Scrubs",
      "restrictedPatient": false
    },
    {
      "prisonerNumber": "A9999AB",
      "pncNumber": "89/004444S",
      "pncNumberCanonicalShort": "89/4444S",
      "pncNumberCanonicalLong": "1989/4444S",
      "croNumber": "43254/15S",
      "bookingId": "1808233",
      "bookNumber": "V61587",
      "firstName": "HAROLD",
      "lastName": "TIMS",
      "dateOfBirth": "1971-02-11",
      "gender": "Male",
      "ethnicity": "White: Eng./Welsh/Scot./N.Irish/British",
      "youthOffender": false,
      "status": "ACTIVE IN",
      "lastMovementTypeCode": "ADM",
      "lastMovementReasonCode": "24",
      "inOutStatus": "IN",
      "prisonId": "WSI",
      "prisonName": "Wormwood Scrubs",
      "mostSeriousOffence": "Section 18 - wounding with intent",
      "recall": false,
      "indeterminateSentence": false,
      "licenceExpiryDate": "2020-02-03",
      "receptionDate": "2015-10-01",
      "paroleEligibilityDate": "2020-02-03",
      "automaticReleaseDate": "2020-02-03",
      "postRecallReleaseDate": "2020-02-03",
      "conditionalReleaseDate": "2020-02-03",
      "actualParoleDate": "2020-02-03",
      "locationDescription": "Wormwood Scrubs",
      "restrictedPatient": false
    },
    {
      "prisonerNumber": "A9999RA",
      "pncNumber": "12/394773W",
      "pncNumberCanonicalShort": "12/394773W",
      "pncNumberCanonicalLong": "2012/394773W",
      "croNumber": "29991/11L",
      "bookingId": "1999991",
      "bookNumber": "V61587",
      "firstName": "PSYHOSP",
      "lastName": "PATIENTONE",
      "dateOfBirth": "1999-06-01",
      "gender": "Male",
      "ethnicity": "White: Eng./Welsh/Scot./N.Irish/British",
      "youthOffender": false,
      "status": "INACTIVE OUT",
      "lastMovementTypeCode": "REL",
      "lastMovementReasonCode": "HP",
      "inOutStatus": "OUT",
      "prisonId": "OUT",
      "prisonName": "Outside",
      "legalStatus": "SENTENCED",
      "recall": false,
      "indeterminateSentence": false,
      "licenceExpiryDate": "2020-02-03",
      "receptionDate": "2015-10-01",
      "paroleEligibilityDate": "2020-02-03",
      "automaticReleaseDate": "2020-02-03",
      "postRecallReleaseDate": "2020-02-03",
      "conditionalReleaseDate": "2020-02-03",
      "actualParoleDate": "2020-02-03",
      "tariffDate": "2022-01-04",
      "releaseOnTemporaryLicenceDate": "2019-08-01",
      "locationDescription": "Outside - Psychiatric Hospital Discharge to Holford House - discharged to Holford House",
      "restrictedPatient": true,
      "supportingPrisonId": "DNI",
      "dischargedHospitalId": "HOLFRD",
      "dischargedHospitalDescription": "Holford House",
      "dischargeDate": "2020-02-04",
      "dischargeDetails": "Psychiatric Hospital Discharge to Holford House"
    },
    {
      "prisonerNumber": "A9999RB",
      "pncNumber": "2014/009773W",
      "pncNumberCanonicalShort": "14/9773W",
      "pncNumberCanonicalLong": "2014/9773W",
      "croNumber": "29913/12L",
      "bookingId": "1999992",
      "bookNumber": "V69687",
      "firstName": "HOSP",
      "lastName": "PATIENTONE",
      "dateOfBirth": "1999-06-01",
      "gender": "Male",
      "ethnicity": "White: Eng./Welsh/Scot./N.Irish/British",
      "youthOffender": false,
      "status": "INACTIVE OUT",
      "lastMovementTypeCode": "REL",
      "lastMovementReasonCode": "HP",
      "inOutStatus": "OUT",
      "prisonId": "OUT",
      "lastPrisonId": "DNI",
      "prisonName": "Outside",
      "aliases": [
        {
          "firstName": "AN",
          "lastName": "OTHERALIAS",
          "dateOfBirth": "1990-08-15",
          "gender": "Male",
          "ethnicity": "White: Eng./Welsh/Scot./N.Irish/British"
        }
      ],
      "legalStatus": "SENTENCED",
      "recall": false,
      "indeterminateSentence": false,
      "licenceExpiryDate": "2020-02-03",
      "receptionDate": "2015-10-01",
      "paroleEligibilityDate": "2020-02-03",
      "automaticReleaseDate": "2020-02-03",
      "postRecallReleaseDate": "2020-02-03",
      "conditionalReleaseDate": "2020-02-03",
      "actualParoleDate": "2020-02-03",
      "tariffDate": "2022-01-04",
      "releaseOnTemporaryLicenceDate": "2019-08-01",
      "locationDescription": "Outside - Psychiatric Hospital Discharge to Yew Trees - discharged to Yew Trees",
      "restrictedPatient": true,
      "supportingPrisonId": "DNI",
      "dischargedHospitalId": "YEWTHO",
      "dischargedHospitalDescription": "Yew Trees",
      "dischargeDate": "2020-02-05",
      "dischargeDetails": "Hospital Discharge to Yew Trees"
    }
  ],
  "pageable": {
    "sort": {
      "empty": true,
      "sorted": false,
      "unsorted": true
    },
    "offset": 0,
    "pageNumber": 0,
    "pageSize": 8,
    "paged": true,
    "unpaged": false
  },
  "last": false,
  "totalPages": 2,
  "totalElements": 11,
  "first": true,
  "size": 8,
  "number": 0,
  "sort": {
    "empty": true,
    "sorted": false,
    "unsorted": true
  },
  "numberOfElements": 8,
  "empty": false
}