{
  "content": [
    {
      "prisonerNumber": "A9999RC",
      "pncNumber": "12/394773W",
      "pncNumberCanonicalShort": "12/394773W",
      "pncNumberCanonicalLong": "2012/394773W",
      "croNumber": "29906/12L",
      "bookingId": "1999993",
      "bookNumber": "V61587",
      "firstName": "HOSP",
      "lastName": "PATIENTTWO",
      "dateOfBirth": "1999-06-01",
      "gender": "Male",
      "ethnicity": "White: Eng./Welsh/Scot./N.Irish/British",
      "youthOffender": false,
      "status": "INACTIVE OUT",
      "lastMovementTypeCode": "REL",
      "lastMovementReasonCode": "HP",
      "inOutStatus": "OUT",
      "prisonId": "OUT",
      "prisonName": "Outside",
      "aliases": [
        {
          "firstName": "PSYHOSP",
          "lastName": "PATIENTONE",
          "dateOfBirth": "1990-08-15",
          "gender": "Male",
          "ethnicity": "White: Eng./Welsh/Scot./N.Irish/British"
        }
      ],
      "legalStatus": "SENTENCED",
      "recall": false,
      "indeterminateSentence": false,
      "licenceExpiryDate": "2020-02-03",
      "receptionDate": "2015-10-01",
      "paroleEligibilityDate": "2020-02-03",
      "automaticReleaseDate": "2020-02-03",
      "postRecallReleaseDate": "2020-02-03",
      "conditionalReleaseDate": "2020-02-03",
      "actualParoleDate": "2020-02-03",
      "tariffDate": "2022-01-04",
      "releaseOnTemporaryLicenceDate": "2019-08-01",
      "locationDescription": "Outside - Psychiatric Hospital Discharge to Yew Trees - discharged to Yew Trees",
      "restrictedPatient": true,
      "supportingPrisonId": "DNI",
      "dischargedHospitalId": "YEWTHO",
      "dischargedHospitalDescription": "Yew Trees",
      "dischargeDate": "2020-02-06",
      "dischargeDetails": "Hospital Discharge to Yew Trees"
    },
    {
      "prisonerNumber": "A7089EZ",
      "pncNumber": "08/359381C",
      "pncNumberCanonicalShort": "08/359381C",
      "pncNumberCanonicalLong": "2008/359381C",
      "croNumber": "400862/08W",
      "bookingId": "1900837",
      "bookNumber": "38339C",
      "firstName": "JOHN",
      "lastName": "SMYTH",
      "dateOfBirth": "1981-01-01",
      "gender": "Male",
      "ethnicity": "White: Eng./Welsh/Scot./N.Irish/British",
      "youthOffender": false,
      "lastMovementTypeCode": "ADM",
      "lastMovementReasonCode": "24",
      "status": "ACTIVE IN",
      "inOutStatus": "IN",
      "prisonId": "LEI",
      "prisonName": "HMP Leeds",
      "aliases": [
        {
          "firstName": "MASTER",
          "lastName": "CORDIAN",
          "dateOfBirth": "1990-08-15",
          "gender": "Male",
          "ethnicity": "White: Eng./Welsh/Scot./N.Irish/British"
        },
        {
          "firstName": "MASTER",
          "middleNames": "J117",
          "lastName": "CHIEF",
          "dateOfBirth": "1983-06-17",
          "gender": "Male"
        },
        {
          "firstName": "MASTER",
          "middleNames": "J117",
          "lastName": "CHEIF",
          "dateOfBirth": "1983-06-17",
          "gender": "Male"
        },
        {
          "firstName": "TONY",
          "middleNames": "IRONMAN",
          "lastName": "STARK",
          "dateOfBirth": "1970-05-29",
          "gender": "Male"
        }
      ],
      "legalStatus": "SENTENCED",
      "nonDtoReleaseDate": "2020-04-28",
      "nonDtoReleaseDateType": "CRD",
      "conditionalReleaseDate": "2020-04-28",
      "restrictedPatient": false
    },
    {
      "prisonerNumber": "A7090BA",
      "pncNumber": "08/359381C",
      "pncNumberCanonicalShort": "08/359381C",
      "pncNumberCanonicalLong": "2008/359381C",
      "croNumber": "400862/08W",
      "bookingId": "1902837",
      "bookNumber": "38239C",
      "firstName": "SAM",
      "lastName": "JONES",
      "dateOfBirth": "1945-10-10",
      "gender": "Male",
      "ethnicity": "White: Eng./Welsh/Scot./N.Irish/British",
      "youthOffender": false,
      "status": "ACTIVE IN",
      "lastMovementTypeCode": "ADM",
      "lastMovementReasonCode": "24",
      "inOutStatus": "IN",
      "prisonId": "LEI",
      "prisonName": "HMP Leeds",
      "aliases": [
        {
          "firstName": "PHIL",
          "lastName": "BLACK",
          "dateOfBirth": "1990-08-15",
          "gender": "Male",
          "ethnicity": "White: Eng./Welsh/Scot./N.Irish/British"
        },
        {
          "firstName": "BOB",
          "middleNames": "J117",
          "lastName": "BLACK",
          "dateOfBirth": "1983-06-17",
          "gender": "Male"
        },
        {
          "firstName": "PHIL",
          "middleNames": "J117",
          "lastName": "WHITE",
          "dateOfBirth": "1983-06-17",
          "gender": "Male"
        },
        {
          "firstName": "CEDRIC",
          "middleNames": "STEELMAN",
          "lastName": "STRONGMAN",
          "dateOfBirth": "1970-05-29",
          "gender": "Male"
        }
      ],
      "legalStatus": "SENTENCED",
      "releaseDate": "2020-04-28",
      "nonDtoReleaseDate": "2020-04-28",
      "nonDtoReleaseDateType": "CRD",
      "conditionalReleaseDate": "2020-04-28",
      "restrictedPatient": false
    }
  ],
  "pageable": {
    "sort": {
      "empty": true,
      "sorted": false,
      "unsorted": true
    },
    "offset": 8,
    "pageNumber": 1,
    "pageSize": 8,
    "paged": true,
    "unpaged": false
  },
  "last": true,
  "totalPages": 2,
  "totalElements": 11,
  "first": false,
  "size": 8,
  "number": 1,
  "sort": {
    "empty": true,
    "sorted": false,
    "unsorted": true
  },
  "numberOfElements": 3,
  "empty": false
}